<svg width="39" height="36" viewBox="0 0 39 36" fill="none" xmlns="http://www.w3.org/2000/svg">
<path d="M14.9955 33.263V22.8464H23.3289V33.263C23.3289 34.4089 24.2664 35.3464 25.4122 35.3464H31.6622C32.808 35.3464 33.7455 34.4089 33.7455 33.263V18.6797H37.2872C38.2455 18.6797 38.7039 17.4922 37.9747 16.8672L20.558 1.17969C19.7664 0.471354 18.558 0.471354 17.7664 1.17969L0.349692 16.8672C-0.358642 17.4922 0.0788581 18.6797 1.03719 18.6797H4.57886V33.263C4.57886 34.4089 5.51636 35.3464 6.66219 35.3464H12.9122C14.058 35.3464 14.9955 34.4089 14.9955 33.263Z" fill="#4EB9FD"/>
</svg>
